pickDate,pickTime,dropDate,dropTime,pulState,clientIp,pulDay,pulState,pul,pickUpLocAirportInd,dolCity,shopType,vehicleFeatures/8/value,carClass,payNowRate/amount,payNowRate/totalRateAmount,payNowRate/baseRate,payNowRate/ratePlan,payLaterRate/amount,payLaterRate/totalRateAmount,payLaterRate/baseRate,carAvailability,savedAmt,perDayPrice
"Sun Oct 24, 2021",12:00 PM,"Sun Nov 21, 2021",12:00 PM,NY,96.234.24.168,Sunday,NY,JFK,true,Arlington,WEEKEND,27,A,1516.19,2280.87,1516.19,M,1595.99,2388.05,1595.99,A,79.8,False
"Sun Oct 24, 2021",12:00 PM,"Sun Nov 21, 2021",12:00 PM,NY,96.234.24.168,Sunday,NY,JFK,true,Arlington,WEEKEND,24,B,1561.79,2467.69,1561.79,M,1643.99,2578.09,1643.99,A,82.2,False
"Sun Oct 24, 2021",12:00 PM,"Sun Nov 21, 2021",12:00 PM,NY,96.234.24.168,Sunday,NY,JFK,true,Arlington,WEEKEND,24,C,1561.79,2467.69,1561.79,M,1643.99,2578.09,1643.99,A,82.2,False
"Sun Oct 24, 2021",12:00 PM,"Sun Nov 21, 2021",12:00 PM,NY,96.234.24.168,Sunday,NY,JFK,true,Arlington,WEEKEND,23,D,1443.99,2309.49,1443.99,M,1519.99,2411.55,1519.99,A,76.0,False
"Sun Oct 24, 2021",12:00 PM,"Sun Nov 21, 2021",12:00 PM,NY,96.234.24.168,Sunday,NY,JFK,true,Arlington,WEEKEND,22,E,1443.99,2309.49,1443.99,M,1519.99,2411.55,1519.99,A,76.0,False
"Sun Oct 24, 2021",12:00 PM,"Sun Nov 21, 2021",12:00 PM,NY,96.234.24.168,Sunday,NY,JFK,true,Arlington,WEEKEND,17,S,1511.44,2400.07,1511.44,M,1590.99,2506.91,1590.99,A,79.55,False
"Sun Oct 24, 2021",12:00 PM,"Sun Nov 21, 2021",12:00 PM,NY,96.234.24.168,Sunday,NY,JFK,true,Arlington,WEEKEND,17,W,1473.44,2280.67,1473.44,M,1550.99,2384.83,1550.99,A,77.55,False
"Sun Oct 24, 2021",12:00 PM,"Sun Nov 21, 2021",12:00 PM,NY,96.234.24.168,Sunday,NY,JFK,true,Arlington,WEEKEND,22,F,1444.94,2190.91,1444.94,M,1520.99,2293.05,1520.99,A,76.05,False
"Sun Oct 24, 2021",12:00 PM,"Sun Nov 21, 2021",12:00 PM,NY,96.234.24.168,Sunday,NY,JFK,true,Arlington,WEEKEND,16,XB,3169.91,4358.86,3169.91,M,3522.12,4831.89,3522.12,A,352.21,False
"Sun Oct 24, 2021",12:00 PM,"Sun Nov 21, 2021",12:00 PM,NY,96.234.24.168,Sunday,NY,JFK,true,Arlington,WEEKEND,51,XC,3169.91,4358.86,3169.91,M,3522.12,4831.89,3522.12,A,352.21,False
"Sun Oct 24, 2021",12:00 PM,"Sun Nov 21, 2021",12:00 PM,NY,96.234.24.168,Sunday,NY,JFK,true,Arlington,WEEKEND,14,XP,6399.96,8696.96,6399.96,M,6399.96,8696.96,6399.96,A,0.0,False
"Sun Oct 24, 2021",12:00 PM,"Sun Nov 21, 2021",12:00 PM,NJ,96.234.24.168,Sunday,NJ,EWR,true,Arlington,WEEKEND,27,A,1377.49,2442.80,1377.49,M,1449.99,2533.70,1449.99,A,72.5,False
"Sun Oct 24, 2021",12:00 PM,"Sun Nov 21, 2021",12:00 PM,NJ,96.234.24.168,Sunday,NJ,EWR,true,Arlington,WEEKEND,24,B,1618.79,2746.60,1618.79,M,1703.99,2853.44,1703.99,A,85.2,False
"Sun Oct 24, 2021",12:00 PM,"Sun Nov 21, 2021",12:00 PM,NJ,96.234.24.168,Sunday,NJ,EWR,true,Arlington,WEEKEND,24,C,1639.69,2772.81,1639.69,M,1725.99,2881.02,1725.99,A,86.3,False
"Sun Oct 24, 2021",12:00 PM,"Sun Nov 21, 2021",12:00 PM,NJ,96.234.24.168,Sunday,NJ,EWR,true,Arlington,WEEKEND,23,D,1789.79,2961.02,1789.79,M,1883.99,3079.14,1883.99,A,94.2,False
"Sun Oct 24, 2021",12:00 PM,"Sun Nov 21, 2021",12:00 PM,NJ,96.234.24.168,Sunday,NJ,EWR,true,Arlington,WEEKEND,22,E,1789.79,2961.02,1789.79,M,1883.99,3079.14,1883.99,A,94.2,False
"Sun Oct 24, 2021",12:00 PM,"Sun Nov 21, 2021",12:00 PM,NJ,96.234.24.168,Sunday,NJ,EWR,true,Arlington,WEEKEND,17,S,2004.49,3230.23,2004.49,M,2109.99,3362.51,2109.99,A,105.5,False
"Sun Oct 24, 2021",12:00 PM,"Sun Nov 21, 2021",12:00 PM,NJ,96.234.24.168,Sunday,NJ,EWR,true,Arlington,WEEKEND,17,W,1966.49,3181.36,1966.49,M,2069.99,3311.12,2069.99,A,103.5,False
"Sun Oct 24, 2021",12:00 PM,"Sun Nov 21, 2021",12:00 PM,NJ,96.234.24.168,Sunday,NJ,EWR,true,Arlington,WEEKEND,22,F,2209.69,3486.29,2209.69,M,2325.99,3632.12,2325.99,A,116.3,False
